Component,Quantity,Description
Adafruit Feather RP2040 RFM95 LoRa Radio,1,Microcontroller with built-in LoRa and LiPo support
Adafruit BME280,1,Temperature, humidity, and pressure sensor
Adafruit SGP30,1,VOC (volatile organic compounds) sensor
Adafruit TSL2591,1,Light sensor
Adafruit PMSA003I,1,Dust sensor
Adafruit Anemometer,1,Wind speed sensor
Wind Vane,1,Wind direction sensor
Rain Gauge,1,Rainfall sensor
Adafruit DS3231,1,Real-time clock module
915MHz Antenna with RP-SMA,1,Antenna for 915MHz LoRa communication
uFL to SMA Adapter Cable,1,Adapter cable to connect the Feather RP2040 to the 915MHz antenna
Solar Panel,1,Renewable energy source
LiPo Battery,1,Rechargeable battery
Prototyping board or enclosure,1,Mounting platform for sensors and Feather RP2040
Various cables and connectors,-,For connecting sensors, modules, and power sources
